P8105 Fall 2023 Final Project
…
## Warning: Expected 9 pieces. Missing pieces filled with `NA` in 41 rows [1, 2, 3, 4, 5,
## 6, 7, 8, 9, 10, 11, 12, 13, 14, 15, 16, 17, 18, 19, 20, ...].

uhf_zip_df

## # A tibble: 176 × 3
##      UHF neighborhood            zip
##    <dbl> <chr>                 <dbl>
##  1   101 Kingsbridge Riverdale 10463
##  2   101 Kingsbridge Riverdale 10471
##  3   102 Northeast Bronx       10466
##  4   102 Northeast Bronx       10469
##  5   102 Northeast Bronx       10470
##  6   102 Northeast Bronx       10475
##  7   103 Fordham Bronx Park    10458
##  8   103 Fordham Bronx Park    10467
##  9   103 Fordham Bronx Park    10468
## 10   104 Pelham Throgs Neck    10461
## # ℹ 166 more rows
